Cleaning & Wrangling
…
# check to make sure you have the right columns
repro_full[,16:25]

# A tibble: 562 × 10
   Flower_1_g Flower_2_g Flower_3_g Flower_4_g Flower_5_g Flower_6_g Flower_7_g
        <dbl>      <dbl>      <dbl>      <dbl>      <dbl>      <dbl>      <dbl>
 1  0.0004     0.0007     0.0008     0.0003     0.0009       0.0004   0.0007   
 2  0.0011    NA         NA         NA         NA           NA       NA        
 3  0.000075   0.000025   0.00005    0.000025   0.0002       0.00025  0.00005  
 4  0.0002     0.00005    0.0003     0.00005    0.000025     0.0002   0.0006   
 5  0.00005    0.000025   0.0000667  0.000167   0.0000667    0.00025  0.00015  
 6  0.00005    0.0000667  0.0000333  0.0000333  0.0001       0.00015  0.0000333
 7  0.0000286  0.00002    0.0004     0.000167   0.0002       0.00005  0.0000333
 8  0.0000375  0.00006    0.00002    0.0000308  0.0000143    0.00004  0.00002  
 9  0.0000364  0.00006    0.00015    0.0000333  0.000025     0.0001   0.000025 
10  0.0009     0.0000333  0.0001     0.00015    0.0008       0.00015  0.0001   
# ℹ 552 more rows
# ℹ 3 more variables: Flower_8_g <dbl>, Flower_9_g <dbl>, Flower_10_g <dbl>
…
